%YAML 1.1
%TAG !u! tag:unity3d.com,2011:
--- !u!114 &11400000
MonoBehaviour:
  m_ObjectHideFlags: 0
  m_CorrespondingSourceObject: {fileID: 0}
  m_PrefabInstance: {fileID: 0}
  m_PrefabAsset: {fileID: 0}
  m_GameObject: {fileID: 0}
  m_Enabled: 1
  m_EditorHideFlags: 0
  m_Script: {fileID: 11500000, guid: e021c5c27274514469ad2992883d55db, type: 3}
  m_Name: TestPlayGraph
  m_EditorClassIdentifier: 
  DebugMode: 0
  m_nodes:
  - {fileID: 114810791973825290}
  - {fileID: 114419579229680450}
  - {fileID: 114476486025382804}
  - {fileID: 114786656379598180}
  - {fileID: 114111198866739718}
  - {fileID: 114548590846474740}
  - {fileID: 114168478890039094}
  - {fileID: 114751474070714344}
  - {fileID: 114015214917767276}
  m_isSubGraph: 0
  m_version: 1
  m_description: 
  m_id: cfe5d7e0-36af-4bff-81df-fd587e8e714d
  m_lastModified: 132191428016744855
--- !u!114 &114015214917767276
MonoBehaviour:
  m_ObjectHideFlags: 1
  m_CorrespondingSourceObject: {fileID: 0}
  m_PrefabInstance: {fileID: 0}
  m_PrefabAsset: {fileID: 0}
  m_GameObject: {fileID: 0}
  m_Enabled: 1
  m_EditorHideFlags: 0
  m_Script: {fileID: 11500000, guid: 0a578cedc5cb4910846bf5566fb79fa9, type: 3}
  m_Name: UIDrawerNode
  m_EditorClassIdentifier: 
  ErrorNodeNameIsEmpty: 0
  ErrorDuplicateNameFoundInGraph: 0
  m_inputSockets:
  - m_connectionMode: 1
    m_connections:
    - m_inputConnectionPoint: {x: 202, y: 4}
      m_outputConnectionPoint: {x: -2, y: 4}
      m_id: bedffa6d-885d-4d98-abae-65a91b9c4fe6
      m_inputNodeId: 155a3938-880b-483a-8e6b-098c49c536b6
      m_inputSocketId: ff8e5963-7cde-420b-af27-c9fb403e601f
      m_outputNodeId: 7fc61b23-b117-467f-b9f9-f03ebbac58ca
      m_outputSocketId: cc3ba6d1-eefd-49f7-a7a7-4bc9755fdba5
    m_connectionPoints:
    - {x: -2, y: 4}
    - {x: 202, y: 4}
    m_direction: 0
    m_canBeDeleted: 0
    m_canBeReordered: 0
    m_curveModifier: 0
    m_height: 24
    m_width: 216
    m_x: 0
    m_y: 38
    m_id: ff8e5963-7cde-420b-af27-c9fb403e601f
    m_nodeId: 155a3938-880b-483a-8e6b-098c49c536b6
    m_socketName: InputSocket_0
    m_value: '{}'
    m_valueTypeQualifiedName: Doozy.Engine.Nody.Connections.PassthroughConnection,
      Assembly-CSharp, Version=0.0.0.0, Culture=neutral, PublicKeyToken=null
  m_outputSockets:
  - m_connectionMode: 0
    m_connections:
    - m_inputConnectionPoint: {x: 202, y: 4}
      m_outputConnectionPoint: {x: -2, y: 4}
      m_id: bc9c73a1-b4fc-461e-be96-fcfd576d9ed0
      m_inputNodeId: 791330dc-4aac-4b4e-a061-9e338e99b6cb
      m_inputSocketId: 7714553b-e5f3-4185-93f5-2ce8714ecd63
      m_outputNodeId: 155a3938-880b-483a-8e6b-098c49c536b6
      m_outputSocketId: 13ddad4d-ca8d-46d8-868a-a17f79265c69
    m_connectionPoints:
    - {x: -2, y: 4}
    - {x: 202, y: 4}
    m_direction: 1
    m_canBeDeleted: 0
    m_canBeReordered: 0
    m_curveModifier: 0
    m_height: 24
    m_width: 216
    m_x: 0
    m_y: 62
    m_id: 13ddad4d-ca8d-46d8-868a-a17f79265c69
    m_nodeId: 155a3938-880b-483a-8e6b-098c49c536b6
    m_socketName: OutputSocket_0
    m_value: '{}'
    m_valueTypeQualifiedName: Doozy.Engine.Nody.Connections.PassthroughConnection,
      Assembly-CSharp, Version=0.0.0.0, Culture=neutral, PublicKeyToken=null
  m_nodeType: 4
  m_allowDuplicateNodeName: 1
  m_allowEmptyNodeName: 0
  m_canBeDeleted: 1
  m_debugMode: 0
  m_useFixedUpdate: 0
  m_useLateUpdate: 0
  m_useUpdate: 0
  m_height: 152
  m_width: 216
  m_x: 108
  m_y: 36
  m_minimumInputSocketsCount: 1
  m_minimumOutputSocketsCount: 1
  m_graphId: cfe5d7e0-36af-4bff-81df-fd587e8e714d
  m_id: 155a3938-880b-483a-8e6b-098c49c536b6
  m_name: UIDrawer
  m_notes: 
  ErrorNoDrawerName: 0
  DrawerName: Right
  CustomDrawerName: 0
  Action: 1
--- !u!114 &114111198866739718
MonoBehaviour:
  m_ObjectHideFlags: 1
  m_CorrespondingSourceObject: {fileID: 0}
  m_PrefabInstance: {fileID: 0}
  m_PrefabAsset: {fileID: 0}
  m_GameObject: {fileID: 0}
  m_Enabled: 1
  m_EditorHideFlags: 0
  m_Script: {fileID: 11500000, guid: 306e3ee67fc748fca180c1c6b99061ab, type: 3}
  m_Name: ApplicationQuitNode
  m_EditorClassIdentifier: 
  ErrorNodeNameIsEmpty: 0
  ErrorDuplicateNameFoundInGraph: 0
  m_inputSockets:
  - m_connectionMode: 1
    m_connections:
    - m_inputConnectionPoint: {x: -2, y: 4}
      m_outputConnectionPoint: {x: 202, y: 4}
      m_id: 6b0035db-a0ed-4a74-b9fe-43c11be0716d
      m_inputNodeId: b0caad06-567f-4733-bbc2-ddd97013629f
      m_inputSocketId: b2dec4eb-ddcd-4915-854c-62f7a134cead
      m_outputNodeId: 7c42c31b-be9e-4921-9b26-b8306393884b
      m_outputSocketId: 1feebae5-732d-449a-b00e-02efee7de3f4
    m_connectionPoints:
    - {x: -2, y: 4}
    - {x: 166, y: 4}
    m_direction: 0
    m_canBeDeleted: 0
    m_canBeReordered: 0
    m_curveModifier: 0
    m_height: 24
    m_width: 180
    m_x: 0
    m_y: 38
    m_id: b2dec4eb-ddcd-4915-854c-62f7a134cead
    m_nodeId: b0caad06-567f-4733-bbc2-ddd97013629f
    m_socketName: InputSocket_0
    m_value: '{}'
    m_valueTypeQualifiedName: Doozy.Engine.Nody.Connections.PassthroughConnection,
      Assembly-CSharp, Version=0.0.0.0, Culture=neutral, PublicKeyToken=null
  m_outputSockets: []
  m_nodeType: 4
  m_allowDuplicateNodeName: 0
  m_allowEmptyNodeName: 0
  m_canBeDeleted: 1
  m_debugMode: 0
  m_useFixedUpdate: 0
  m_useLateUpdate: 0
  m_useUpdate: 0
  m_height: 80
  m_width: 180
  m_x: 720
  m_y: 192
  m_minimumInputSocketsCount: 1
  m_minimumOutputSocketsCount: 1
  m_graphId: cfe5d7e0-36af-4bff-81df-fd587e8e714d
  m_id: b0caad06-567f-4733-bbc2-ddd97013629f
  m_name: Application Quit
  m_notes: 
--- !u!114 &114168478890039094
MonoBehaviour:
  m_ObjectHideFlags: 1
  m_CorrespondingSourceObject: {fileID: 0}
  m_PrefabInstance: {fileID: 0}
  m_PrefabAsset: {fileID: 0}
  m_GameObject: {fileID: 0}
  m_Enabled: 1
  m_EditorHideFlags: 0
  m_Script: {fileID: 11500000, guid: 840a439e06374673a9115ed02deb5a54, type: 3}
  m_Name: UINode
  m_EditorClassIdentifier: 
  ErrorNodeNameIsEmpty: 0
  ErrorDuplicateNameFoundInGraph: 0
  m_inputSockets:
  - m_connectionMode: 1
    m_connections:
    - m_inputConnectionPoint: {x: 202, y: 4}
      m_outputConnectionPoint: {x: 202, y: 4}
      m_id: 38828b2e-cc44-4ef9-9682-4e63ae2d35d9
      m_inputNodeId: a7c4248d-dbf7-4085-bc78-2401e7a72f99
      m_inputSocketId: 913881e4-4a13-41b9-be96-9d6aefa61f70
      m_outputNodeId: 0733d269-8b2d-4d96-be06-1be4002a4ee8
      m_outputSocketId: 0a01196d-40b2-4d1a-ad6c-7738b917f55b
    m_connectionPoints:
    - {x: -2, y: 4}
    - {x: 202, y: 4}
    m_direction: 0
    m_canBeDeleted: 0
    m_canBeReordered: 0
    m_curveModifier: 0
    m_height: 24
    m_width: 216
    m_x: 0
    m_y: 38
    m_id: 913881e4-4a13-41b9-be96-9d6aefa61f70
    m_nodeId: a7c4248d-dbf7-4085-bc78-2401e7a72f99
    m_socketName: InputSocket_0
    m_value: '{"ButtonCategory":"General","ButtonName":"Unnamed","GameEvent":"","TimeDelay":3.0,"Trigger":0}'
    m_valueTypeQualifiedName: Doozy.Engine.UI.Connections.UIConnection, Assembly-CSharp,
      Version=0.0.0.0, Culture=neutral, PublicKeyToken=null
  m_outputSockets:
  - m_connectionMode: 0
    m_connections:
    - m_inputConnectionPoint: {x: 202, y: 4}
      m_outputConnectionPoint: {x: -2, y: 4}
      m_id: bbf272e6-7704-4656-a083-f6ee90178917
      m_inputNodeId: 7fc61b23-b117-467f-b9f9-f03ebbac58ca
      m_inputSocketId: 7506ade7-633c-4139-8643-be6bdd67ec6f
      m_outputNodeId: a7c4248d-dbf7-4085-bc78-2401e7a72f99
      m_outputSocketId: 74bd6561-4049-490d-a026-651ec4eb41d6
    m_connectionPoints:
    - {x: -2, y: 4}
    - {x: 202, y: 4}
    m_direction: 1
    m_canBeDeleted: 1
    m_canBeReordered: 1
    m_curveModifier: 0
    m_height: 24
    m_width: 216
    m_x: 0
    m_y: 62
    m_id: 74bd6561-4049-490d-a026-651ec4eb41d6
    m_nodeId: a7c4248d-dbf7-4085-bc78-2401e7a72f99
    m_socketName: OutputSocket_0
    m_value: '{"ButtonCategory":"General","ButtonName":"Back","GameEvent":"","TimeDelay":3.0,"Trigger":0}'
    m_valueTypeQualifiedName: Doozy.Engine.UI.Connections.UIConnection, Assembly-CSharp,
      Version=0.0.0.0, Culture=neutral, PublicKeyToken=null
  - m_connectionMode: 0
    m_connections:
    - m_inputConnectionPoint: {x: 202, y: 4}
      m_outputConnectionPoint: {x: 202, y: 4}
      m_id: 6d647fa6-9940-4127-b62f-2a5bba957611
      m_inputNodeId: 0733d269-8b2d-4d96-be06-1be4002a4ee8
      m_inputSocketId: 1441ace4-a4f6-4c38-8540-fa5c12402141
      m_outputNodeId: a7c4248d-dbf7-4085-bc78-2401e7a72f99
      m_outputSocketId: 6f810471-6c04-418c-8d93-1baea6eb7bef
    m_connectionPoints:
    - {x: -2, y: 4}
    - {x: 202, y: 4}
    m_direction: 1
    m_canBeDeleted: 1
    m_canBeReordered: 1
    m_curveModifier: 0
    m_height: 24
    m_width: 216
    m_x: 0
    m_y: 86
    m_id: 6f810471-6c04-418c-8d93-1baea6eb7bef
    m_nodeId: a7c4248d-dbf7-4085-bc78-2401e7a72f99
    m_socketName: OutputSocket_1
    m_value: '{"ButtonCategory":"Settings","ButtonName":"Sounds","GameEvent":"","TimeDelay":3.0,"Trigger":0}'
    m_valueTypeQualifiedName: Doozy.Engine.UI.Connections.UIConnection, Assembly-CSharp,
      Version=0.0.0.0, Culture=neutral, PublicKeyToken=null
  - m_connectionMode: 0
    m_connections:
    - m_inputConnectionPoint: {x: 202, y: 4}
      m_outputConnectionPoint: {x: -2, y: 4}
      m_id: 4f0f970b-ac1a-403f-a0a9-0d2de7d4302a
      m_inputNodeId: 7fc61b23-b117-467f-b9f9-f03ebbac58ca
      m_inputSocketId: 7506ade7-633c-4139-8643-be6bdd67ec6f
      m_outputNodeId: a7c4248d-dbf7-4085-bc78-2401e7a72f99
      m_outputSocketId: 03b2bee5-9413-4cfd-bbc4-823979fdbbc5
    m_connectionPoints:
    - {x: -2, y: 4}
    - {x: 202, y: 4}
    m_direction: 1
    m_canBeDeleted: 1
    m_canBeReordered: 1
    m_curveModifier: 0
    m_height: 24
    m_width: 216
    m_x: 0
    m_y: 110
    m_id: 03b2bee5-9413-4cfd-bbc4-823979fdbbc5
    m_nodeId: a7c4248d-dbf7-4085-bc78-2401e7a72f99
    m_socketName: OutputSocket_2
    m_value: '{"ButtonCategory":"Settings","ButtonName":"Back","GameEvent":"","TimeDelay":3.0,"Trigger":0}'
    m_valueTypeQualifiedName: Doozy.Engine.UI.Connections.UIConnection, Assembly-CSharp,
      Version=0.0.0.0, Culture=neutral, PublicKeyToken=null
  m_nodeType: 4
  m_allowDuplicateNodeName: 0
  m_allowEmptyNodeName: 0
  m_canBeDeleted: 1
  m_debugMode: 0
  m_useFixedUpdate: 0
  m_useLateUpdate: 0
  m_useUpdate: 0
  m_height: 176
  m_width: 216
  m_x: 720
  m_y: 0
  m_minimumInputSocketsCount: 1
  m_minimumOutputSocketsCount: 1
  m_graphId: cfe5d7e0-36af-4bff-81df-fd587e8e714d
  m_id: a7c4248d-dbf7-4085-bc78-2401e7a72f99
  m_name: Show Settings - Keys
  m_notes: 
  m_onEnterShowViews:
  - Category: Settings
    InstantAction: 0
    Name: Keys
  m_onEnterHideViews: []
  m_onExitShowViews: []
  m_onExitHideViews:
  - Category: Settings
    InstantAction: 0
    Name: Keys
--- !u!114 &114419579229680450
MonoBehaviour:
  m_ObjectHideFlags: 1
  m_CorrespondingSourceObject: {fileID: 0}
  m_PrefabInstance: {fileID: 0}
  m_PrefabAsset: {fileID: 0}
  m_GameObject: {fileID: 0}
  m_Enabled: 1
  m_EditorHideFlags: 0
  m_Script: {fileID: 11500000, guid: d57ed238b12b4e09aba0c83117a55de7, type: 3}
  m_Name: StartNode
  m_EditorClassIdentifier: 
  ErrorNodeNameIsEmpty: 0
  ErrorDuplicateNameFoundInGraph: 0
  m_inputSockets: []
  m_outputSockets:
  - m_connectionMode: 0
    m_connections:
    - m_inputConnectionPoint: {x: -2, y: 4}
      m_outputConnectionPoint: {x: 106, y: 4}
      m_id: dccc638e-b788-4acb-8bba-e4c273f0d620
      m_inputNodeId: 791330dc-4aac-4b4e-a061-9e338e99b6cb
      m_inputSocketId: 7714553b-e5f3-4185-93f5-2ce8714ecd63
      m_outputNodeId: 8d5366d3-8c80-4ba7-96a1-9c4c2b661c6b
      m_outputSocketId: d66cde2c-f64d-415d-b9b2-e00355ed8852
    m_connectionPoints:
    - {x: -2, y: 4}
    - {x: 106, y: 4}
    m_direction: 1
    m_canBeDeleted: 0
    m_canBeReordered: 0
    m_curveModifier: 0
    m_height: 24
    m_width: 120
    m_x: 0
    m_y: 38
    m_id: d66cde2c-f64d-415d-b9b2-e00355ed8852
    m_nodeId: 8d5366d3-8c80-4ba7-96a1-9c4c2b661c6b
    m_socketName: OutputSocket_0
    m_value: '{"ButtonCategory":"General","ButtonName":"Unnamed","GameEvent":"","TimeDelay":3.0,"Trigger":0}'
    m_valueTypeQualifiedName: Doozy.Engine.UI.Connections.UIConnection, Assembly-CSharp,
      Version=0.0.0.0, Culture=neutral, PublicKeyToken=null
  m_nodeType: 0
  m_allowDuplicateNodeName: 0
  m_allowEmptyNodeName: 0
  m_canBeDeleted: 0
  m_debugMode: 0
  m_useFixedUpdate: 0
  m_useLateUpdate: 0
  m_useUpdate: 0
  m_height: 80
  m_width: 120
  m_x: -300
  m_y: -24
  m_minimumInputSocketsCount: 1
  m_minimumOutputSocketsCount: 1
  m_graphId: cfe5d7e0-36af-4bff-81df-fd587e8e714d
  m_id: 8d5366d3-8c80-4ba7-96a1-9c4c2b661c6b
  m_name: Start
  m_notes: 
  ErrorNodeIsNotConnected: 0
--- !u!114 &114476486025382804
MonoBehaviour:
  m_ObjectHideFlags: 1
  m_CorrespondingSourceObject: {fileID: 0}
  m_PrefabInstance: {fileID: 0}
  m_PrefabAsset: {fileID: 0}
  m_GameObject: {fileID: 0}
  m_Enabled: 1
  m_EditorHideFlags: 0
  m_Script: {fileID: 11500000, guid: 840a439e06374673a9115ed02deb5a54, type: 3}
  m_Name: UINode
  m_EditorClassIdentifier: 
  ErrorNodeNameIsEmpty: 0
  ErrorDuplicateNameFoundInGraph: 0
  m_inputSockets:
  - m_connectionMode: 1
    m_connections:
    - m_inputConnectionPoint: {x: -2, y: 4}
      m_outputConnectionPoint: {x: 106, y: 4}
      m_id: dccc638e-b788-4acb-8bba-e4c273f0d620
      m_inputNodeId: 791330dc-4aac-4b4e-a061-9e338e99b6cb
      m_inputSocketId: 7714553b-e5f3-4185-93f5-2ce8714ecd63
      m_outputNodeId: 8d5366d3-8c80-4ba7-96a1-9c4c2b661c6b
      m_outputSocketId: d66cde2c-f64d-415d-b9b2-e00355ed8852
    - m_inputConnectionPoint: {x: 202, y: 4}
      m_outputConnectionPoint: {x: -2, y: 4}
      m_id: bc9c73a1-b4fc-461e-be96-fcfd576d9ed0
      m_inputNodeId: 791330dc-4aac-4b4e-a061-9e338e99b6cb
      m_inputSocketId: 7714553b-e5f3-4185-93f5-2ce8714ecd63
      m_outputNodeId: 155a3938-880b-483a-8e6b-098c49c536b6
      m_outputSocketId: 13ddad4d-ca8d-46d8-868a-a17f79265c69
    m_connectionPoints:
    - {x: -2, y: 4}
    - {x: 202, y: 4}
    m_direction: 0
    m_canBeDeleted: 0
    m_canBeReordered: 0
    m_curveModifier: 0
    m_height: 24
    m_width: 216
    m_x: 0
    m_y: 38
    m_id: 7714553b-e5f3-4185-93f5-2ce8714ecd63
    m_nodeId: 791330dc-4aac-4b4e-a061-9e338e99b6cb
    m_socketName: InputSocket_0
    m_value: '{"ButtonCategory":"General","ButtonName":"Unnamed","GameEvent":"","TimeDelay":3.0,"Trigger":0}'
    m_valueTypeQualifiedName: Doozy.Engine.UI.Connections.UIConnection, Assembly-CSharp,
      Version=0.0.0.0, Culture=neutral, PublicKeyToken=null
  m_outputSockets:
  - m_connectionMode: 0
    m_connections:
    - m_inputConnectionPoint: {x: -2, y: 4}
      m_outputConnectionPoint: {x: 202, y: 4}
      m_id: 06d4dfc8-71f1-4f44-9e29-221e0a231aae
      m_inputNodeId: 89b5303a-69e8-4d74-9b81-caafcb79b235
      m_inputSocketId: 53f20bbe-a803-4985-b65d-2d7e686593e8
      m_outputNodeId: 791330dc-4aac-4b4e-a061-9e338e99b6cb
      m_outputSocketId: 8009996b-f9f9-44ac-8c52-2dad4d8c8930
    m_connectionPoints:
    - {x: -2, y: 4}
    - {x: 202, y: 4}
    m_direction: 1
    m_canBeDeleted: 1
    m_canBeReordered: 1
    m_curveModifier: 0
    m_height: 24
    m_width: 216
    m_x: 0
    m_y: 62
    m_id: 8009996b-f9f9-44ac-8c52-2dad4d8c8930
    m_nodeId: 791330dc-4aac-4b4e-a061-9e338e99b6cb
    m_socketName: OutputSocket_3
    m_value: '{"ButtonCategory":"InGame","ButtonName":"ToggleDrawer","GameEvent":"","TimeDelay":3.0,"Trigger":0}'
    m_valueTypeQualifiedName: Doozy.Engine.UI.Connections.UIConnection, Assembly-CSharp,
      Version=0.0.0.0, Culture=neutral, PublicKeyToken=null
  m_nodeType: 4
  m_allowDuplicateNodeName: 0
  m_allowEmptyNodeName: 0
  m_canBeDeleted: 1
  m_debugMode: 0
  m_useFixedUpdate: 0
  m_useLateUpdate: 0
  m_useUpdate: 0
  m_height: 128
  m_width: 216
  m_x: -156
  m_y: -24
  m_minimumInputSocketsCount: 1
  m_minimumOutputSocketsCount: 1
  m_graphId: cfe5d7e0-36af-4bff-81df-fd587e8e714d
  m_id: 791330dc-4aac-4b4e-a061-9e338e99b6cb
  m_name: Show UpperBar
  m_notes: 
  m_onEnterShowViews:
  - Category: InGame
    InstantAction: 0
    Name: UpperBar
  m_onEnterHideViews:
  - Category: Settings
    InstantAction: 0
    Name: Menu
  m_onExitShowViews: []
  m_onExitHideViews: []
--- !u!114 &114548590846474740
MonoBehaviour:
  m_ObjectHideFlags: 1
  m_CorrespondingSourceObject: {fileID: 0}
  m_PrefabInstance: {fileID: 0}
  m_PrefabAsset: {fileID: 0}
  m_GameObject: {fileID: 0}
  m_Enabled: 1
  m_EditorHideFlags: 0
  m_Script: {fileID: 11500000, guid: 840a439e06374673a9115ed02deb5a54, type: 3}
  m_Name: UINode
  m_EditorClassIdentifier: 
  ErrorNodeNameIsEmpty: 0
  ErrorDuplicateNameFoundInGraph: 0
  m_inputSockets:
  - m_connectionMode: 1
    m_connections:
    - m_inputConnectionPoint: {x: 202, y: 4}
      m_outputConnectionPoint: {x: 202, y: 4}
      m_id: 6d647fa6-9940-4127-b62f-2a5bba957611
      m_inputNodeId: 0733d269-8b2d-4d96-be06-1be4002a4ee8
      m_inputSocketId: 1441ace4-a4f6-4c38-8540-fa5c12402141
      m_outputNodeId: a7c4248d-dbf7-4085-bc78-2401e7a72f99
      m_outputSocketId: 6f810471-6c04-418c-8d93-1baea6eb7bef
    - m_inputConnectionPoint: {x: -2, y: 4}
      m_outputConnectionPoint: {x: 202, y: 4}
      m_id: ebcc6629-c3fb-40ff-9177-08185ce5c2bf
      m_inputNodeId: 0733d269-8b2d-4d96-be06-1be4002a4ee8
      m_inputSocketId: 1441ace4-a4f6-4c38-8540-fa5c12402141
      m_outputNodeId: 7fc61b23-b117-467f-b9f9-f03ebbac58ca
      m_outputSocketId: 32bf950d-96a6-45fa-987c-4582bd9dc196
    m_connectionPoints:
    - {x: -2, y: 4}
    - {x: 202, y: 4}
    m_direction: 0
    m_canBeDeleted: 0
    m_canBeReordered: 0
    m_curveModifier: 0
    m_height: 24
    m_width: 216
    m_x: 0
    m_y: 38
    m_id: 1441ace4-a4f6-4c38-8540-fa5c12402141
    m_nodeId: 0733d269-8b2d-4d96-be06-1be4002a4ee8
    m_socketName: InputSocket_0
    m_value: '{"ButtonCategory":"General","ButtonName":"Unnamed","GameEvent":"","TimeDelay":3.0,"Trigger":0}'
    m_valueTypeQualifiedName: Doozy.Engine.UI.Connections.UIConnection, Assembly-CSharp,
      Version=0.0.0.0, Culture=neutral, PublicKeyToken=null
  m_outputSockets:
  - m_connectionMode: 0
    m_connections:
    - m_inputConnectionPoint: {x: 202, y: 4}
      m_outputConnectionPoint: {x: -2, y: 4}
      m_id: 459d29b8-a0f8-4349-8878-daf84aa87863
      m_inputNodeId: 7fc61b23-b117-467f-b9f9-f03ebbac58ca
      m_inputSocketId: 7506ade7-633c-4139-8643-be6bdd67ec6f
      m_outputNodeId: 0733d269-8b2d-4d96-be06-1be4002a4ee8
      m_outputSocketId: 91274930-a81e-4fa3-892b-a998edd9ac05
    m_connectionPoints:
    - {x: -2, y: 4}
    - {x: 202, y: 4}
    m_direction: 1
    m_canBeDeleted: 1
    m_canBeReordered: 1
    m_curveModifier: 0
    m_height: 24
    m_width: 216
    m_x: 0
    m_y: 62
    m_id: 91274930-a81e-4fa3-892b-a998edd9ac05
    m_nodeId: 0733d269-8b2d-4d96-be06-1be4002a4ee8
    m_socketName: OutputSocket_0
    m_value: '{"ButtonCategory":"General","ButtonName":"Back","GameEvent":"","TimeDelay":3.0,"Trigger":0}'
    m_valueTypeQualifiedName: Doozy.Engine.UI.Connections.UIConnection, Assembly-CSharp,
      Version=0.0.0.0, Culture=neutral, PublicKeyToken=null
  - m_connectionMode: 0
    m_connections:
    - m_inputConnectionPoint: {x: 202, y: 4}
      m_outputConnectionPoint: {x: 202, y: 4}
      m_id: 38828b2e-cc44-4ef9-9682-4e63ae2d35d9
      m_inputNodeId: a7c4248d-dbf7-4085-bc78-2401e7a72f99
      m_inputSocketId: 913881e4-4a13-41b9-be96-9d6aefa61f70
      m_outputNodeId: 0733d269-8b2d-4d96-be06-1be4002a4ee8
      m_outputSocketId: 0a01196d-40b2-4d1a-ad6c-7738b917f55b
    m_connectionPoints:
    - {x: -2, y: 4}
    - {x: 202, y: 4}
    m_direction: 1
    m_canBeDeleted: 1
    m_canBeReordered: 1
    m_curveModifier: 0
    m_height: 24
    m_width: 216
    m_x: 0
    m_y: 86
    m_id: 0a01196d-40b2-4d1a-ad6c-7738b917f55b
    m_nodeId: 0733d269-8b2d-4d96-be06-1be4002a4ee8
    m_socketName: OutputSocket_1
    m_value: '{"ButtonCategory":"Settings","ButtonName":"Keys","GameEvent":"","TimeDelay":3.0,"Trigger":0}'
    m_valueTypeQualifiedName: Doozy.Engine.UI.Connections.UIConnection, Assembly-CSharp,
      Version=0.0.0.0, Culture=neutral, PublicKeyToken=null
  - m_connectionMode: 0
    m_connections:
    - m_inputConnectionPoint: {x: 202, y: 4}
      m_outputConnectionPoint: {x: -2, y: 4}
      m_id: 97cd79a3-59b7-4d6b-940d-659e6743e181
      m_inputNodeId: 7fc61b23-b117-467f-b9f9-f03ebbac58ca
      m_inputSocketId: 7506ade7-633c-4139-8643-be6bdd67ec6f
      m_outputNodeId: 0733d269-8b2d-4d96-be06-1be4002a4ee8
      m_outputSocketId: f69a1cdc-9ec1-4f15-85f0-7acd2b01fa19
    m_connectionPoints:
    - {x: -2, y: 4}
    - {x: 202, y: 4}
    m_direction: 1
    m_canBeDeleted: 1
    m_canBeReordered: 1
    m_curveModifier: 0
    m_height: 24
    m_width: 216
    m_x: 0
    m_y: 110
    m_id: f69a1cdc-9ec1-4f15-85f0-7acd2b01fa19
    m_nodeId: 0733d269-8b2d-4d96-be06-1be4002a4ee8
    m_socketName: OutputSocket_2
    m_value: '{"ButtonCategory":"Settings","ButtonName":"Back","GameEvent":"","TimeDelay":3.0,"Trigger":0}'
    m_valueTypeQualifiedName: Doozy.Engine.UI.Connections.UIConnection, Assembly-CSharp,
      Version=0.0.0.0, Culture=neutral, PublicKeyToken=null
  m_nodeType: 4
  m_allowDuplicateNodeName: 0
  m_allowEmptyNodeName: 0
  m_canBeDeleted: 1
  m_debugMode: 0
  m_useFixedUpdate: 0
  m_useLateUpdate: 0
  m_useUpdate: 0
  m_height: 176
  m_width: 216
  m_x: 720
  m_y: -168
  m_minimumInputSocketsCount: 1
  m_minimumOutputSocketsCount: 1
  m_graphId: cfe5d7e0-36af-4bff-81df-fd587e8e714d
  m_id: 0733d269-8b2d-4d96-be06-1be4002a4ee8
  m_name: Show Settings - Sounds
  m_notes: 
  m_onEnterShowViews:
  - Category: Settings
    InstantAction: 0
    Name: Menu
  - Category: Settings
    InstantAction: 0
    Name: Sounds
  m_onEnterHideViews: []
  m_onExitShowViews: []
  m_onExitHideViews:
  - Category: Settings
    InstantAction: 0
    Name: Sounds
--- !u!114 &114751474070714344
MonoBehaviour:
  m_ObjectHideFlags: 1
  m_CorrespondingSourceObject: {fileID: 0}
  m_PrefabInstance: {fileID: 0}
  m_PrefabAsset: {fileID: 0}
  m_GameObject: {fileID: 0}
  m_Enabled: 1
  m_EditorHideFlags: 0
  m_Script: {fileID: 11500000, guid: 0a578cedc5cb4910846bf5566fb79fa9, type: 3}
  m_Name: UIDrawerNode
  m_EditorClassIdentifier: 
  ErrorNodeNameIsEmpty: 0
  ErrorDuplicateNameFoundInGraph: 0
  m_inputSockets:
  - m_connectionMode: 1
    m_connections:
    - m_inputConnectionPoint: {x: -2, y: 4}
      m_outputConnectionPoint: {x: 202, y: 4}
      m_id: 06d4dfc8-71f1-4f44-9e29-221e0a231aae
      m_inputNodeId: 89b5303a-69e8-4d74-9b81-caafcb79b235
      m_inputSocketId: 53f20bbe-a803-4985-b65d-2d7e686593e8
      m_outputNodeId: 791330dc-4aac-4b4e-a061-9e338e99b6cb
      m_outputSocketId: 8009996b-f9f9-44ac-8c52-2dad4d8c8930
    m_connectionPoints:
    - {x: -2, y: 4}
    - {x: 202, y: 4}
    m_direction: 0
    m_canBeDeleted: 0
    m_canBeReordered: 0
    m_curveModifier: 0
    m_height: 24
    m_width: 216
    m_x: 0
    m_y: 38
    m_id: 53f20bbe-a803-4985-b65d-2d7e686593e8
    m_nodeId: 89b5303a-69e8-4d74-9b81-caafcb79b235
    m_socketName: InputSocket_0
    m_value: '{}'
    m_valueTypeQualifiedName: Doozy.Engine.Nody.Connections.PassthroughConnection,
      Assembly-CSharp, Version=0.0.0.0, Culture=neutral, PublicKeyToken=null
  m_outputSockets:
  - m_connectionMode: 0
    m_connections:
    - m_inputConnectionPoint: {x: -2, y: 4}
      m_outputConnectionPoint: {x: 202, y: 4}
      m_id: 1131d742-9752-4f49-9256-b2f793c68529
      m_inputNodeId: 7fc61b23-b117-467f-b9f9-f03ebbac58ca
      m_inputSocketId: 7506ade7-633c-4139-8643-be6bdd67ec6f
      m_outputNodeId: 89b5303a-69e8-4d74-9b81-caafcb79b235
      m_outputSocketId: 97e67e41-2ea6-4aa5-bd82-76d5f7a63344
    m_connectionPoints:
    - {x: -2, y: 4}
    - {x: 202, y: 4}
    m_direction: 1
    m_canBeDeleted: 0
    m_canBeReordered: 0
    m_curveModifier: 0
    m_height: 24
    m_width: 216
    m_x: 0
    m_y: 62
    m_id: 97e67e41-2ea6-4aa5-bd82-76d5f7a63344
    m_nodeId: 89b5303a-69e8-4d74-9b81-caafcb79b235
    m_socketName: OutputSocket_0
    m_value: '{}'
    m_valueTypeQualifiedName: Doozy.Engine.Nody.Connections.PassthroughConnection,
      Assembly-CSharp, Version=0.0.0.0, Culture=neutral, PublicKeyToken=null
  m_nodeType: 4
  m_allowDuplicateNodeName: 1
  m_allowEmptyNodeName: 0
  m_canBeDeleted: 1
  m_debugMode: 0
  m_useFixedUpdate: 0
  m_useLateUpdate: 0
  m_useUpdate: 0
  m_height: 152
  m_width: 216
  m_x: 108
  m_y: -108
  m_minimumInputSocketsCount: 1
  m_minimumOutputSocketsCount: 1
  m_graphId: cfe5d7e0-36af-4bff-81df-fd587e8e714d
  m_id: 89b5303a-69e8-4d74-9b81-caafcb79b235
  m_name: UIDrawer
  m_notes: 
  ErrorNoDrawerName: 0
  DrawerName: Right
  CustomDrawerName: 0
  Action: 0
--- !u!114 &114786656379598180
MonoBehaviour:
  m_ObjectHideFlags: 1
  m_CorrespondingSourceObject: {fileID: 0}
  m_PrefabInstance: {fileID: 0}
  m_PrefabAsset: {fileID: 0}
  m_GameObject: {fileID: 0}
  m_Enabled: 1
  m_EditorHideFlags: 0
  m_Script: {fileID: 11500000, guid: 97aebf4d1c7c46d9843e5c78fd464d44, type: 3}
  m_Name: GameEventNode
  m_EditorClassIdentifier: 
  ErrorNodeNameIsEmpty: 0
  ErrorDuplicateNameFoundInGraph: 0
  m_inputSockets:
  - m_connectionMode: 1
    m_connections:
    - m_inputConnectionPoint: {x: 202, y: 4}
      m_outputConnectionPoint: {x: 202, y: 4}
      m_id: 35174c59-69ba-4c63-b1fc-168fcf67c162
      m_inputNodeId: 7c42c31b-be9e-4921-9b26-b8306393884b
      m_inputSocketId: 3d566a8d-c18c-415d-b31d-9fd50ead9678
      m_outputNodeId: 7fc61b23-b117-467f-b9f9-f03ebbac58ca
      m_outputSocketId: 39a7c75d-22b2-4a27-8a7a-7c87defe0ebb
    m_connectionPoints:
    - {x: -2, y: 4}
    - {x: 202, y: 4}
    m_direction: 0
    m_canBeDeleted: 0
    m_canBeReordered: 0
    m_curveModifier: 0
    m_height: 24
    m_width: 216
    m_x: 0
    m_y: 38
    m_id: 3d566a8d-c18c-415d-b31d-9fd50ead9678
    m_nodeId: 7c42c31b-be9e-4921-9b26-b8306393884b
    m_socketName: InputSocket_0
    m_value: '{}'
    m_valueTypeQualifiedName: Doozy.Engine.Nody.Connections.PassthroughConnection,
      Assembly-CSharp, Version=0.0.0.0, Culture=neutral, PublicKeyToken=null
  m_outputSockets:
  - m_connectionMode: 0
    m_connections:
    - m_inputConnectionPoint: {x: -2, y: 4}
      m_outputConnectionPoint: {x: 202, y: 4}
      m_id: 6b0035db-a0ed-4a74-b9fe-43c11be0716d
      m_inputNodeId: b0caad06-567f-4733-bbc2-ddd97013629f
      m_inputSocketId: b2dec4eb-ddcd-4915-854c-62f7a134cead
      m_outputNodeId: 7c42c31b-be9e-4921-9b26-b8306393884b
      m_outputSocketId: 1feebae5-732d-449a-b00e-02efee7de3f4
    m_connectionPoints:
    - {x: -2, y: 4}
    - {x: 202, y: 4}
    m_direction: 1
    m_canBeDeleted: 0
    m_canBeReordered: 0
    m_curveModifier: 0
    m_height: 24
    m_width: 216
    m_x: 0
    m_y: 62
    m_id: 1feebae5-732d-449a-b00e-02efee7de3f4
    m_nodeId: 7c42c31b-be9e-4921-9b26-b8306393884b
    m_socketName: OutputSocket_0
    m_value: '{}'
    m_valueTypeQualifiedName: Doozy.Engine.Nody.Connections.PassthroughConnection,
      Assembly-CSharp, Version=0.0.0.0, Culture=neutral, PublicKeyToken=null
  m_nodeType: 4
  m_allowDuplicateNodeName: 0
  m_allowEmptyNodeName: 0
  m_canBeDeleted: 1
  m_debugMode: 0
  m_useFixedUpdate: 0
  m_useLateUpdate: 0
  m_useUpdate: 0
  m_height: 152
  m_width: 216
  m_x: 360
  m_y: 168
  m_minimumInputSocketsCount: 1
  m_minimumOutputSocketsCount: 1
  m_graphId: cfe5d7e0-36af-4bff-81df-fd587e8e714d
  m_id: 7c42c31b-be9e-4921-9b26-b8306393884b
  m_name: Save&Quit
  m_notes: 
  ErrorNotSendingAnyGameEvent: 1
  GameEvent: 
--- !u!114 &114810791973825290
MonoBehaviour:
  m_ObjectHideFlags: 1
  m_CorrespondingSourceObject: {fileID: 0}
  m_PrefabInstance: {fileID: 0}
  m_PrefabAsset: {fileID: 0}
  m_GameObject: {fileID: 0}
  m_Enabled: 1
  m_EditorHideFlags: 0
  m_Script: {fileID: 11500000, guid: 840a439e06374673a9115ed02deb5a54, type: 3}
  m_Name: UINode
  m_EditorClassIdentifier: 
  ErrorNodeNameIsEmpty: 0
  ErrorDuplicateNameFoundInGraph: 0
  m_inputSockets:
  - m_connectionMode: 1
    m_connections:
    - m_inputConnectionPoint: {x: 202, y: 4}
      m_outputConnectionPoint: {x: -2, y: 4}
      m_id: bbf272e6-7704-4656-a083-f6ee90178917
      m_inputNodeId: 7fc61b23-b117-467f-b9f9-f03ebbac58ca
      m_inputSocketId: 7506ade7-633c-4139-8643-be6bdd67ec6f
      m_outputNodeId: a7c4248d-dbf7-4085-bc78-2401e7a72f99
      m_outputSocketId: 74bd6561-4049-490d-a026-651ec4eb41d6
    - m_inputConnectionPoint: {x: 202, y: 4}
      m_outputConnectionPoint: {x: -2, y: 4}
      m_id: 4f0f970b-ac1a-403f-a0a9-0d2de7d4302a
      m_inputNodeId: 7fc61b23-b117-467f-b9f9-f03ebbac58ca
      m_inputSocketId: 7506ade7-633c-4139-8643-be6bdd67ec6f
      m_outputNodeId: a7c4248d-dbf7-4085-bc78-2401e7a72f99
      m_outputSocketId: 03b2bee5-9413-4cfd-bbc4-823979fdbbc5
    - m_inputConnectionPoint: {x: -2, y: 4}
      m_outputConnectionPoint: {x: 202, y: 4}
      m_id: 1131d742-9752-4f49-9256-b2f793c68529
      m_inputNodeId: 7fc61b23-b117-467f-b9f9-f03ebbac58ca
      m_inputSocketId: 7506ade7-633c-4139-8643-be6bdd67ec6f
      m_outputNodeId: 89b5303a-69e8-4d74-9b81-caafcb79b235
      m_outputSocketId: 97e67e41-2ea6-4aa5-bd82-76d5f7a63344
    - m_inputConnectionPoint: {x: 202, y: 4}
      m_outputConnectionPoint: {x: -2, y: 4}
      m_id: 459d29b8-a0f8-4349-8878-daf84aa87863
      m_inputNodeId: 7fc61b23-b117-467f-b9f9-f03ebbac58ca
      m_inputSocketId: 7506ade7-633c-4139-8643-be6bdd67ec6f
      m_outputNodeId: 0733d269-8b2d-4d96-be06-1be4002a4ee8
      m_outputSocketId: 91274930-a81e-4fa3-892b-a998edd9ac05
    - m_inputConnectionPoint: {x: 202, y: 4}
      m_outputConnectionPoint: {x: -2, y: 4}
      m_id: 97cd79a3-59b7-4d6b-940d-659e6743e181
      m_inputNodeId: 7fc61b23-b117-467f-b9f9-f03ebbac58ca
      m_inputSocketId: 7506ade7-633c-4139-8643-be6bdd67ec6f
      m_outputNodeId: 0733d269-8b2d-4d96-be06-1be4002a4ee8
      m_outputSocketId: f69a1cdc-9ec1-4f15-85f0-7acd2b01fa19
    m_connectionPoints:
    - {x: -2, y: 4}
    - {x: 202, y: 4}
    m_direction: 0
    m_canBeDeleted: 0
    m_canBeReordered: 0
    m_curveModifier: 0
    m_height: 24
    m_width: 216
    m_x: 0
    m_y: 38
    m_id: 7506ade7-633c-4139-8643-be6bdd67ec6f
    m_nodeId: 7fc61b23-b117-467f-b9f9-f03ebbac58ca
    m_socketName: InputSocket_0
    m_value: '{"ButtonCategory":"General","ButtonName":"Unnamed","GameEvent":"","TimeDelay":3.0,"Trigger":0}'
    m_valueTypeQualifiedName: Doozy.Engine.UI.Connections.UIConnection, Assembly-CSharp,
      Version=0.0.0.0, Culture=neutral, PublicKeyToken=null
  m_outputSockets:
  - m_connectionMode: 0
    m_connections:
    - m_inputConnectionPoint: {x: -2, y: 4}
      m_outputConnectionPoint: {x: 202, y: 4}
      m_id: ebcc6629-c3fb-40ff-9177-08185ce5c2bf
      m_inputNodeId: 0733d269-8b2d-4d96-be06-1be4002a4ee8
      m_inputSocketId: 1441ace4-a4f6-4c38-8540-fa5c12402141
      m_outputNodeId: 7fc61b23-b117-467f-b9f9-f03ebbac58ca
      m_outputSocketId: 32bf950d-96a6-45fa-987c-4582bd9dc196
    m_connectionPoints:
    - {x: -2, y: 4}
    - {x: 202, y: 4}
    m_direction: 1
    m_canBeDeleted: 1
    m_canBeReordered: 1
    m_curveModifier: 0
    m_height: 24
    m_width: 216
    m_x: 0
    m_y: 62
    m_id: 32bf950d-96a6-45fa-987c-4582bd9dc196
    m_nodeId: 7fc61b23-b117-467f-b9f9-f03ebbac58ca
    m_socketName: OutputSocket_1
    m_value: '{"ButtonCategory":"InGame","ButtonName":"Menu","GameEvent":"","TimeDelay":3.0,"Trigger":0}'
    m_valueTypeQualifiedName: Doozy.Engine.UI.Connections.UIConnection, Assembly-CSharp,
      Version=0.0.0.0, Culture=neutral, PublicKeyToken=null
  - m_connectionMode: 0
    m_connections:
    - m_inputConnectionPoint: {x: 202, y: 4}
      m_outputConnectionPoint: {x: -2, y: 4}
      m_id: bedffa6d-885d-4d98-abae-65a91b9c4fe6
      m_inputNodeId: 155a3938-880b-483a-8e6b-098c49c536b6
      m_inputSocketId: ff8e5963-7cde-420b-af27-c9fb403e601f
      m_outputNodeId: 7fc61b23-b117-467f-b9f9-f03ebbac58ca
      m_outputSocketId: cc3ba6d1-eefd-49f7-a7a7-4bc9755fdba5
    m_connectionPoints:
    - {x: -2, y: 4}
    - {x: 202, y: 4}
    m_direction: 1
    m_canBeDeleted: 1
    m_canBeReordered: 1
    m_curveModifier: 0
    m_height: 24
    m_width: 216
    m_x: 0
    m_y: 86
    m_id: cc3ba6d1-eefd-49f7-a7a7-4bc9755fdba5
    m_nodeId: 7fc61b23-b117-467f-b9f9-f03ebbac58ca
    m_socketName: OutputSocket_3
    m_value: '{"ButtonCategory":"InGame","ButtonName":"ToggleDrawer","GameEvent":"","TimeDelay":3.0,"Trigger":0}'
    m_valueTypeQualifiedName: Doozy.Engine.UI.Connections.UIConnection, Assembly-CSharp,
      Version=0.0.0.0, Culture=neutral, PublicKeyToken=null
  - m_connectionMode: 0
    m_connections:
    - m_inputConnectionPoint: {x: 202, y: 4}
      m_outputConnectionPoint: {x: 202, y: 4}
      m_id: 35174c59-69ba-4c63-b1fc-168fcf67c162
      m_inputNodeId: 7c42c31b-be9e-4921-9b26-b8306393884b
      m_inputSocketId: 3d566a8d-c18c-415d-b31d-9fd50ead9678
      m_outputNodeId: 7fc61b23-b117-467f-b9f9-f03ebbac58ca
      m_outputSocketId: 39a7c75d-22b2-4a27-8a7a-7c87defe0ebb
    m_connectionPoints:
    - {x: -2, y: 4}
    - {x: 202, y: 4}
    m_direction: 1
    m_canBeDeleted: 1
    m_canBeReordered: 1
    m_curveModifier: 0
    m_height: 24
    m_width: 216
    m_x: 0
    m_y: 110
    m_id: 39a7c75d-22b2-4a27-8a7a-7c87defe0ebb
    m_nodeId: 7fc61b23-b117-467f-b9f9-f03ebbac58ca
    m_socketName: OutputSocket_0
    m_value: '{"ButtonCategory":"InGame","ButtonName":"Quit","GameEvent":"","TimeDelay":3.0,"Trigger":0}'
    m_valueTypeQualifiedName: Doozy.Engine.UI.Connections.UIConnection, Assembly-CSharp,
      Version=0.0.0.0, Culture=neutral, PublicKeyToken=null
  m_nodeType: 4
  m_allowDuplicateNodeName: 0
  m_allowEmptyNodeName: 0
  m_canBeDeleted: 1
  m_debugMode: 0
  m_useFixedUpdate: 0
  m_useLateUpdate: 0
  m_useUpdate: 0
  m_height: 176
  m_width: 216
  m_x: 360
  m_y: -60
  m_minimumInputSocketsCount: 1
  m_minimumOutputSocketsCount: 1
  m_graphId: cfe5d7e0-36af-4bff-81df-fd587e8e714d
  m_id: 7fc61b23-b117-467f-b9f9-f03ebbac58ca
  m_name: Drawer Selection
  m_notes: 
  m_onEnterShowViews:
  - Category: InGame
    InstantAction: 0
    Name: UpperBar
  m_onEnterHideViews:
  - Category: Settings
    InstantAction: 0
    Name: Menu
  m_onExitShowViews: []
  m_onExitHideViews: []
