%YAML 1.1
%TAG !u! tag:unity3d.com,2011:
--- !u!21 &2100000
Material:
  serializedVersion: 6
  m_ObjectHideFlags: 0
  m_PrefabParentObject: {fileID: 0}
  m_PrefabInternal: {fileID: 0}
  m_Name: PW-Woodland
  m_Shader: {fileID: 4800000, guid: 4c097e847a0b1ea4cb50af2fb83046ca, type: 3}
  m_ShaderKeywords: 
  m_LightmapFlags: 5
  m_EnableInstancingVariants: 0
  m_DoubleSidedGI: 0
  m_CustomRenderQueue: -1
  stringTagMap: {}
  disabledShaderPasses: []
  m_SavedProperties:
    serializedVersion: 3
    m_TexEnvs:
    - _BumpMap:
        m_Texture: {fileID: 0}
        m_Scale: {x: 1, y: 1}
        m_Offset: {x: 0, y: 0}
    - _BumpSpecMap:
        m_Texture: {fileID: 0}
        m_Scale: {x: 1, y: 1}
        m_Offset: {x: 0, y: 0}
    - _DetailAlbedoMap:
        m_Texture: {fileID: 0}
        m_Scale: {x: 1, y: 1}
        m_Offset: {x: 0, y: 0}
    - _DetailMask:
        m_Texture: {fileID: 0}
        m_Scale: {x: 1, y: 1}
        m_Offset: {x: 0, y: 0}
    - _DetailNormalMap:
        m_Texture: {fileID: 0}
        m_Scale: {x: 1, y: 1}
        m_Offset: {x: 0, y: 0}
    - _DiffuseIBL:
        m_Texture: {fileID: 8900000, guid: dff352cf164f4c74592b71cf6d9248da, type: 2}
        m_Scale: {x: 1, y: 1}
        m_Offset: {x: 0, y: 0}
    - _EmissionMap:
        m_Texture: {fileID: 0}
        m_Scale: {x: 2, y: 2}
        m_Offset: {x: 0, y: 0}
    - _GlossMap:
        m_Texture: {fileID: 0}
        m_Scale: {x: 1, y: 1}
        m_Offset: {x: 0, y: 0}
    - _Illum:
        m_Texture: {fileID: 8900000, guid: dff352cf164f4c74592b71cf6d9248da, type: 2}
        m_Scale: {x: 1, y: 1}
        m_Offset: {x: 0, y: 0}
    - _MainTex:
        m_Texture: {fileID: 2800000, guid: 9e12017ccd2b22a41832e5e94a14e4a0, type: 3}
        m_Scale: {x: 2, y: 2}
        m_Offset: {x: 0, y: 0}
    - _MetallicGlossMap:
        m_Texture: {fileID: 0}
        m_Scale: {x: 1, y: 1}
        m_Offset: {x: 0, y: 0}
    - _OcclusionMap:
        m_Texture: {fileID: 0}
        m_Scale: {x: 1, y: 1}
        m_Offset: {x: 0, y: 0}
    - _ParallaxMap:
        m_Texture: {fileID: 0}
        m_Scale: {x: 1, y: 1}
        m_Offset: {x: 0, y: 0}
    - _ReflectionCube:
        m_Texture: {fileID: 8900000, guid: 810393e7e25997d46811d185a8c160df, type: 2}
        m_Scale: {x: 1, y: 1}
        m_Offset: {x: 0, y: 0}
    - _ShadowOffset:
        m_Texture: {fileID: 0}
        m_Scale: {x: 1, y: 1}
        m_Offset: {x: 0, y: 0}
    - _TranslucencyMap:
        m_Texture: {fileID: 0}
        m_Scale: {x: 1, y: 1}
        m_Offset: {x: 0, y: 0}
    m_Floats:
    - _AO: 0
    - _Alpha: 1
    - _AlphaValue: 1
    - _BaseLight: 1
    - _BumpScale: 1
    - _CubeIntensity: 1.31
    - _CubeMipLevel: 0
    - _Cutoff: 0.9
    - _DetailNormalMapScale: 1
    - _DstBlend: 0
    - _EMISSION: 0
    - _Emission: 1
    - _EmissionScale: 0
    - _Glossiness: 0.5
    - _IBLBrightness: 1.1891891
    - _Metallic: 0
    - _Mode: 0
    - _Occlusion: 20
    - _OcclusionStrength: 1
    - _Opacity: 1
    - _Parallax: 0.02
    - _PowVal: 1
    - _ReflectionAmount: 1
    - _Shininess: 0.198
    - _Smoothness: 0.131
    - _SquashAmount: 1
    - _SrcBlend: 1
    - _UVSec: 0
    - _ZWrite: 1
    - __dirty: 0
    - _node_9417: 1
    m_Colors:
    - _AmbientTint: {r: 1, g: 1, b: 1, a: 1}
    - _Color: {r: 1, g: 1, b: 1, a: 1}
    - _EmissionColor: {r: 0, g: 0, b: 0, a: 1}
    - _EmissiveColor: {r: 1, g: 1, b: 1, a: 1}
    - _ReflectionTint: {r: 0.45588237, g: 0.45588237, b: 0.45588237, a: 1}
    - _SpecColor: {r: 1, g: 1, b: 1, a: 1}
    - _TreeInstanceColor: {r: 1, g: 1, b: 1, a: 1}
    - _TreeInstanceScale: {r: 1, g: 1, b: 1, a: 1}
