%YAML 1.1
%TAG !u! tag:unity3d.com,2011:
--- !u!114 &11400000
MonoBehaviour:
  m_ObjectHideFlags: 0
  m_CorrespondingSourceObject: {fileID: 0}
  m_PrefabInstance: {fileID: 0}
  m_PrefabAsset: {fileID: 0}
  m_GameObject: {fileID: 0}
  m_Enabled: 1
  m_EditorHideFlags: 0
  m_Script: {fileID: 11500000, guid: e021c5c27274514469ad2992883d55db, type: 3}
  m_Name: E6 - Progressors
  m_EditorClassIdentifier: 
  DebugMode: 0
  m_nodes:
  - {fileID: 114139957729687128}
  - {fileID: 114205034835907004}
  m_isSubGraph: 0
  m_version: 1
  m_description: 
  m_id: ff7100de-2dec-4418-a529-e0f2e480aab6
  m_lastModified: 132191289528392387
--- !u!114 &114139957729687128
MonoBehaviour:
  m_ObjectHideFlags: 1
  m_CorrespondingSourceObject: {fileID: 0}
  m_PrefabInstance: {fileID: 0}
  m_PrefabAsset: {fileID: 0}
  m_GameObject: {fileID: 0}
  m_Enabled: 1
  m_EditorHideFlags: 0
  m_Script: {fileID: 11500000, guid: d57ed238b12b4e09aba0c83117a55de7, type: 3}
  m_Name: StartNode
  m_EditorClassIdentifier: 
  ErrorNodeNameIsEmpty: 0
  ErrorDuplicateNameFoundInGraph: 0
  m_inputSockets: []
  m_outputSockets:
  - m_connectionMode: 0
    m_connections:
    - m_inputConnectionPoint: {x: -2, y: 4}
      m_outputConnectionPoint: {x: -2, y: 4}
      m_id: c7164d11-086d-43fa-bcc1-55d4c792b1bd
      m_inputNodeId: 92e19478-d2b6-4736-8d3b-89617f941b72
      m_inputSocketId: 29b28eda-b296-45a3-bd49-2cadfc6a3437
      m_outputNodeId: 48fb4597-906b-484c-a4fe-cbec186ef16c
      m_outputSocketId: f6a91b7c-98b6-46ad-a953-441b229ad880
    m_connectionPoints:
    - {x: -2, y: 4}
    - {x: 106, y: 4}
    m_direction: 1
    m_canBeDeleted: 0
    m_canBeReordered: 0
    m_curveModifier: 0
    m_height: 24
    m_width: 120
    m_x: 0
    m_y: 38
    m_id: f6a91b7c-98b6-46ad-a953-441b229ad880
    m_nodeId: 48fb4597-906b-484c-a4fe-cbec186ef16c
    m_socketName: OutputSocket_0
    m_value: '{"ButtonCategory":"General","ButtonName":"Unnamed","GameEvent":"","TimeDelay":3.0,"Trigger":0}'
    m_valueTypeQualifiedName: Doozy.Engine.UI.Connections.UIConnection, Assembly-CSharp,
      Version=0.0.0.0, Culture=neutral, PublicKeyToken=null
  m_nodeType: 0
  m_allowDuplicateNodeName: 0
  m_allowEmptyNodeName: 0
  m_canBeDeleted: 0
  m_debugMode: 0
  m_useFixedUpdate: 0
  m_useLateUpdate: 0
  m_useUpdate: 0
  m_height: 80
  m_width: 120
  m_x: -60
  m_y: -16
  m_minimumInputSocketsCount: 1
  m_minimumOutputSocketsCount: 1
  m_graphId: ff7100de-2dec-4418-a529-e0f2e480aab6
  m_id: 48fb4597-906b-484c-a4fe-cbec186ef16c
  m_name: Start
  m_notes: 
  ErrorNodeIsNotConnected: 0
--- !u!114 &114205034835907004
MonoBehaviour:
  m_ObjectHideFlags: 1
  m_CorrespondingSourceObject: {fileID: 0}
  m_PrefabInstance: {fileID: 0}
  m_PrefabAsset: {fileID: 0}
  m_GameObject: {fileID: 0}
  m_Enabled: 1
  m_EditorHideFlags: 0
  m_Script: {fileID: 11500000, guid: 840a439e06374673a9115ed02deb5a54, type: 3}
  m_Name: UINode
  m_EditorClassIdentifier: 
  ErrorNodeNameIsEmpty: 0
  ErrorDuplicateNameFoundInGraph: 0
  m_inputSockets:
  - m_connectionMode: 1
    m_connections:
    - m_inputConnectionPoint: {x: -2, y: 4}
      m_outputConnectionPoint: {x: -2, y: 4}
      m_id: c7164d11-086d-43fa-bcc1-55d4c792b1bd
      m_inputNodeId: 92e19478-d2b6-4736-8d3b-89617f941b72
      m_inputSocketId: 29b28eda-b296-45a3-bd49-2cadfc6a3437
      m_outputNodeId: 48fb4597-906b-484c-a4fe-cbec186ef16c
      m_outputSocketId: f6a91b7c-98b6-46ad-a953-441b229ad880
    m_connectionPoints:
    - {x: -2, y: 4}
    - {x: 202, y: 4}
    m_direction: 0
    m_canBeDeleted: 0
    m_canBeReordered: 0
    m_curveModifier: 0
    m_height: 24
    m_width: 216
    m_x: 0
    m_y: 38
    m_id: 29b28eda-b296-45a3-bd49-2cadfc6a3437
    m_nodeId: 92e19478-d2b6-4736-8d3b-89617f941b72
    m_socketName: InputSocket_0
    m_value: '{"ButtonCategory":"General","ButtonName":"Unnamed","GameEvent":"","TimeDelay":3.0,"Trigger":0}'
    m_valueTypeQualifiedName: Doozy.Engine.UI.Connections.UIConnection, Assembly-CSharp,
      Version=0.0.0.0, Culture=neutral, PublicKeyToken=null
  m_outputSockets:
  - m_connectionMode: 0
    m_connections: []
    m_connectionPoints:
    - {x: -2, y: 4}
    - {x: 202, y: 4}
    m_direction: 1
    m_canBeDeleted: 1
    m_canBeReordered: 1
    m_curveModifier: 0
    m_height: 24
    m_width: 216
    m_x: 0
    m_y: 62
    m_id: 63ed1927-5075-4ea7-9bd9-1bb681a48d07
    m_nodeId: 92e19478-d2b6-4736-8d3b-89617f941b72
    m_socketName: OutputSocket_0
    m_value: '{"ButtonCategory":"General","ButtonName":"Back","GameEvent":"","TimeDelay":3.0,"Trigger":0}'
    m_valueTypeQualifiedName: Doozy.Engine.UI.Connections.UIConnection, Assembly-CSharp,
      Version=0.0.0.0, Culture=neutral, PublicKeyToken=null
  m_nodeType: 4
  m_allowDuplicateNodeName: 0
  m_allowEmptyNodeName: 0
  m_canBeDeleted: 1
  m_debugMode: 0
  m_useFixedUpdate: 0
  m_useLateUpdate: 0
  m_useUpdate: 0
  m_height: 128
  m_width: 216
  m_x: -46.160454
  m_y: 87.04026
  m_minimumInputSocketsCount: 1
  m_minimumOutputSocketsCount: 1
  m_graphId: ff7100de-2dec-4418-a529-e0f2e480aab6
  m_id: 92e19478-d2b6-4736-8d3b-89617f941b72
  m_name: Main Menu
  m_notes: 
  m_onEnterShowViews:
  - Category: Example
    InstantAction: 0
    Name: MainMenu
  m_onEnterHideViews: []
  m_onExitShowViews: []
  m_onExitHideViews:
  - Category: Example
    InstantAction: 0
    Name: MainMenu
